Player Name,Date of Birth,Player Number,Role,Shoots,Height (cm),Weight (g),Citizenship
Blake Wheeler,1990-01-01,26,RW,R,185,90720,Canada
Bryan Little,1991-02-02,19,C,R,183,83720,Canada
Dustin Byfuglien,1992-03-03,33,D,R,196,108860,Canada
Evander Kane,1993-04-04,9,LW,L,188,96950,Canada
Jacob Trouba,1994-05-05,4,D,R,191,95250,Canada
Joe Pavelski,1995-06-06,8,C,R,183,86180,United States
Kyle Connor,1996-07-07,17,LW,L,185,88450,United States
Mark Scheifele,1997-08-08,55,C,R,188,90720,Canada
Paul Stastny,1998-09-09,29,C,R,185,86180,Canada
Patrik Laine,1999-10-10,27,RW,R,196,95250,Finland
Andrew Ladd,2000-11-11,16,LW,L,191,96950,Canada
Alex Goligoski,2001-12-12,47,D,R,183,86180,United States
Anthony Peluso,2002-01-01,14,RW,R,188,99790,Canada
Chris Kunitz,2003-02-02,11,LW,L,183,88450,Canada
Dustin Byfuglien,2004-03-03,33,D,R,196,108860,Canada
Eric Fehr,2005-04-04,18,RW,R,188,92520,Canada
James Neal,2006-05-05,25,RW,R,183,86180,Canada
Michael Frolik,2007-06-06,12,RW,R,185,88450,Czech Republic
Olli Maatta,2008-07-07,7,D,L,185,90720,Finland
Paul Maurice,2009-08-08,3,C,L,185,86180,Canada
Ryan Suter,2010-09-09,4,D,R,183,88450,United States
Tyler Myers,2011-10-10,5,D,R,196,95250,Canada
Zach Bogosian,2012-11-11,6,D,R,191,96950,Canada
Zach Parise,2013-12-12,13,LW,L,185,90720,United States
Boris Volkov,1991-02-02,33,RW,R,183,83720,Russia
Dmitri Ivanov,1992-03-03,41,LW,L,188,90720,Russia
Evgeny Kuznetsov,1993-04-04,92,C,R,183,81640,Russia
Grigori Kozlov,1994-05-05,88,RW,R,185,88450,Russia
Igor Shvets,1995-06-06,77,D,L,191,95250,Russia
Ilya Kovalchuk,1996-07-07,17,C,R,188,92520,Russia
Kirill Kabanov,1997-08-08,55,LW,L,183,81640,Russia
Mikhail Grigorenko,1998-09-09,29,C,R,185,86180,Russia
Nikita Kucherov,1999-10-10,86,RW,R,183,83720,Russia
Pavel Datsyuk,2000-11-11,13,C,R,183,81640,Russia
Sergei Fedorov,2001-12-12,7,D,L,191,90720,Russia
Valeri Bure,2002-01-01,11,LW,L,185,88450,Russia
Viktor Kozlov,2003-02-02,2,C,R,183,83720,Russia
Vladimir Malakhov,2004-03-03,5,D,L,191,95250,Russia
Yevgeni Malkin,2005-04-04,87,C,R,188,92520,Russia
Alexander Ovechkin,2006-05-05,8,RW,R,185,86180,Russia
Andrei Markov,2007-06-06,4,D,L,183,81640,Russia
Anton Volchenkov,2008-07-07,6,D,L,191,90720,Russia
Denis Poturin,2009-08-08,15,LW,L,188,90720,Russia
Nikolai Zherdev,2010-09-09,10,RW,R,185,88450,Russia
Roman Lyubimov,2011-10-10,20,C,R,183,81640,Russia
Sergei Zubov,2012-11-11,3,D,L,188,92520,Russia
Vladimir Tortsov,2013-12-12,12,D,L,191,95250,Russia
Vyacheslav Fetisov,2014-01-01,1,G,,188,86180,Russia
Alex Galchenyuk,1990-01-01,14,C,L,185,86180,Russia
Antoine Roussel,1991-02-02,13,LW,L,183,83720,Canada
Brendan Gallagher,1992-03-03,5,RW,R,175,81640,Canada
Carey Price,1993-04-04,1,G,,188,90720,Canada
Charles Hudon,1994-05-05,12,LW,L,183,83720,Canada
Christian Dvorak,1995-06-06,24,C,R,185,86180,Czech Republic
Dale Weise,1996-07-07,41,RW,R,188,92520,Canada
David Desharnais,1997-08-08,19,C,R,183,81640,Canada
Jeff Petry,1998-09-09,2,D,R,185,90720,Canada
Jordan Eberle,1999-10-10,17,RW,R,183,83720,Canada
Max Pacioretty,2000-11-11,67,LW,L,183,86180,Canada
Paul Byron,2001-12-12,21,RW,R,175,81640,Canada
Shea Weber,2002-01-01,6,D,R,191,95250,Canada
Tomas Tatar,2003-02-02,81,LW,L,183,83720,Slovakia
Victor Mete,2004-03-03,7,D,L,183,83720,Canada
Andrew Shaw,2005-04-04,61,LW,L,175,81640,Canada
Artturi Lehkonen,2006-05-05,40,LW,L,183,83720,Finland
Ben Chiarot,2007-06-06,77,D,L,188,92520,Canada
Joel Edmundson,2008-07-07,23,D,L,188,90720,Canada
Jonathan Drouin,2009-08-08,11,C,L,183,83720,Canada
Kevin Labanc,2010-09-09,39,RW,R,175,81640,United States
Logan Shaw,2011-10-10,28,RW,R,188,90720,Canada
Matthew Peca,2012-11-11,18,C,R,183,83720,Canada
Mike Hoffman,2013-12-12,10,LW,L,183,83720,Canada
Alexander Radulov,1990-01-01,47,RW,R,188,95250,Russia
Alexander Semin,1991-02-02,19,RW,R,183,86180,Russia
Andrei Kostitsyn,1992-03-03,23,LW,L,185,90720,Russia
Sergei Mozyakin,1993-04-04,7,RW,R,183,83720,Russia
Vadim Shipachyov,1994-05-05,88,C,R,185,88450,Russia
Alexander Ovechkin,1995-06-06,8,LW,L,188,95250,Russia
Alexei Yashin,1996-07-07,17,C,R,183,86180,Russia
Daniil Sobolev,1997-08-08,55,LW,L,188,90720,Russia
Dmitry Kulikov,1998-09-09,29,D,L,185,86180,Russia
Evgeny Dadonov,1999-10-10,86,RW,R,183,83720,Russia
Ilya Kovalchuk,2000-11-11,13,LW,L,183,81640,Russia
Kirill Kabanov,2001-12-12,7,D,L,191,90720,Russia
Mikhail Grigorenko,2002-01-01,11,C,R,185,88450,Russia
Nikita Kucherov,2003-02-02,2,C,R,183,83720,Russia
Pavel Datsyuk,2004-03-03,5,D,L,191,95250,Russia
Sergei Fedorov,2005-04-04,87,C,R,188,92520,Russia
Valeri Bure,2006-05-05,1,G,,188,86180,Russia
Viktor Kozlov,2007-06-06,10,RW,R,185,88450,Russia
Vladimir Malakhov,2008-07-07,20,C,R,183,81640,Russia
Yevgeni Malkin,2009-08-08,3,D,L,188,92520,Russia
Alexander Ovechkin,2010-09-09,4,D,L,183,81640,Russia
Andrei Markov,2011-10-10,6,D,L,191,90720,Russia
Anton Volchenkov,2012-11-11,15,LW,L,188,90720,Russia
Connor McDavid,1990-01-01,97,C,R,185,86180,Canada
Leon Draisaitl,1991-02-02,29,C,R,183,83720,Germany
Ryan Nugent-Hopkins,1992-03-03,9,C,R,188,90720,Canada
Jesse Puljujarvi,1993-04-04,13,RW,R,183,81640,Finland
Kailer Yamamoto,1994-05-05,14,RW,R,185,88450,Canada
Darnell Nurse,1995-06-06,24,D,L,191,95250,Canada
Ethan Bear,1996-07-07,4,D,R,183,86180,Canada
William Lagesson,1997-08-08,55,D,L,188,90720,Sweden
Tyler Benson,1998-09-09,29,LW,L,185,86180,Canada
Jujhar Khaira,1999-10-10,86,C,R,183,83720,Canada
Alex Chiasson,2000-11-11,13,RW,R,183,81640,Canada
Riley Sheahan,2001-12-12,7,C,R,191,90720,Canada
Josh Archibald,2002-01-01,11,LW,L,185,88450,Canada
Zack Kassian,2003-02-02,2,RW,R,183,83720,Canada
Kris Russell,2004-03-03,5,D,L,191,95250,Canada
Matt Benning,2005-04-04,87,D,R,188,92520,Canada
Mike Smith,2006-05-05,1,G,,188,86180,Canada
Mikko Koskinen,2007-06-06,25,G,,185,88450,Finland
Ryan McLeod,2008-07-07,10,C,R,185,88450,Canada
Tyler Ennis,2009-08-08,20,C,R,183,81640,Canada
Warren Foegele,2010-09-09,41,LW,L,183,83720,Canada
Xavier Simoneau,2011-10-10,18,RW,R,188,90720,Canada
Dmitri Kulikov,2012-11-11,23,D,L,185,86180,Russia
Evgeny Dadonov,2013-12-12,86,RW,R,183,83720,Russia
Ilya Kovalchuk,2014-01-01,13,LW,L,183,81640,Russia
Dylan Larkin,1990-01-01,16,C,L,183,86180,United States
Anthony Mantha,1991-02-02,13,RW,R,188,95250,Canada
Andreas Athanasiou,1992-03-03,12,LW,L,183,83720,Greece
Darren Helm,1993-04-04,17,LW,L,183,81640,Canada
Filip Zadina,1994-05-05,11,RW,R,185,88450,Czech Republic
Danny DeKeyser,1995-06-06,6,D,L,188,90720,United States
Dennis Cholowski,1996-07-07,4,D,R,183,86180,Canada
Evgeny Svechnikov,1997-08-08,55,RW,R,188,90720,Russia
Frans Nielsen,1998-09-09,29,C,R,185,86180,Denmark
Gustav Nyquist,1999-10-10,86,LW,L,183,83720,Sweden
Luke Glendening,2000-11-11,13,C,R,183,81640,United States
Michael Rasmussen,2001-12-12,7,C,R,191,90720,Canada
Tyler Bertuzzi,2002-01-01,11,LW,L,185,88450,Canada
Valtteri Filppula,2003-02-02,2,C,R,183,83720,Finland
Jonathan Ericsson,2004-03-03,5,D,L,191,95250,Sweden
Mike Green,2005-04-04,87,D,R,188,92520,Canada
Jimmy Howard,2006-05-05,1,G,,188,86180,United States
Jonathan Bernier,2007-06-06,25,G,,185,88450,Canada
Thomas Vanek,2008-07-07,10,LW,L,185,88450,Austria
Trevor Daley,2009-08-08,20,D,L,183,81640,Canada
Frans Nielsen,2010-09-09,29,C,R,185,86180,Denmark
Gustav Nyquist,2011-10-10,86,LW,L,183,83720,Sweden
Luke Glendening,2012-11-11,13,C,R,183,81640,United States
Michael Rasmussen,2013-12-12,7,C,R,191,90720,Canada
Tyler Bertuzzi,2014-01-01,11,LW,L,185,88450,Canada
Valtteri Filppula,2015-02-02,2,C,R,183,83720,Finland
Jonathan Ericsson,2016-03-03,5,D,L,191,95250,Sweden
Mike Green,2017-04-04,87,D,R,188,92520,Canada
Scott Gomez,1990-01-01,11,C,L,183,86180,United States
Brandon Dubinsky,1991-02-02,13,C,R,188,95250,United States
Derek Stepan,1992-03-03,12,C,R,183,83720,United States
Mats Zuccarello,1993-04-04,17,RW,R,183,81640,Norway
Rick Nash,1994-05-05,61,LW,L,185,88450,Canada
Dan Girardi,1995-06-06,5,D,R,188,90720,United States
Marc Staal,1996-07-07,4,D,L,183,86180,Canada
Ryan McDonagh,1997-08-08,55,D,L,188,90720,United States
J.T. Miller,1998-09-09,29,C,R,185,86180,Canada
Chris Kreider,1999-10-10,86,LW,L,183,83720,United States
Derek Brassard,2000-11-11,13,C,R,183,81640,Canada
Dominic Moore,2001-12-12,7,C,R,191,90720,Canada
Mats Zuccarello,2002-01-01,11,RW,R,185,88450,Norway
Rick Nash,2003-02-02,61,LW,L,185,88450,Canada
Dan Girardi,2004-03-03,5,D,R,188,90720,United States
Marc Staal,2005-04-04,4,D,L,183,86180,Canada
Ryan McDonagh,2006-05-05,55,D,L,188,90720,United States
J.T. Miller,2007-06-06,29,C,R,185,86180,Canada
Chris Kreider,2008-07-07,86,LW,L,183,83720,United States
Derek Brassard,2009-08-08,13,C,R,183,81640,Canada
Dominic Moore,2010-09-09,7,C,R,191,90720,Canada
Mats Zuccarello,2011-10-10,11,RW,R,185,88450,Norway
Rick Nash,2012-11-11,61,LW,L,185,88450,Canada
Dan Girardi,2013-12-12,5,D,R,188,90720,United States
Marc Staal,2014-01-01,4,D,L,183,86180,Canada
Ryan McDonagh,2015-02-02,55,D,L,188,90720,United States
J.T. Miller,2016-03-03,29,C,R,185,86180,Canada
Chris Kreider,2017-04-04,86,LW,L,183,83720,United States
Sebastian Aho,1990-01-01,20,C,R,183,86180,Finland
Andrei Svechnikov,1991-02-02,29,RW,R,188,95250,Russia
Martin Necas,1992-03-03,12,C,L,183,83720,Czech Republic
Teuvo Teravainen,1993-04-04,17,RW,R,183,81640,Finland
Jesper Fast,1994-05-05,11,RW,R,185,88450,Sweden
Jaccob Slavin,1995-06-06,4,D,R,188,90720,United States
Brett Pesce,1996-07-07,6,D,L,183,86180,United States
Dougie Hamilton,1997-08-08,55,D,R,188,90720,Canada
Vincent Trocheck,1998-09-09,29,C,R,185,86180,United States
Jordan Staal,1999-10-10,86,C,R,183,83720,Canada
Derek Ryan,2000-11-11,13,C,R,183,81640,Canada
Warren Foegele,2001-12-12,7,LW,L,191,90720,Canada
Andrei Svechnikov,2002-01-01,29,RW,R,188,95250,Russia
Teuvo Teravainen,2003-02-02,17,RW,R,183,81640,Finland
Jesper Fast,2004-03-03,11,RW,R,185,88450,Sweden
Jaccob Slavin,2005-04-04,4,D,R,188,90720,United States
Brett Pesce,2006-05-05,6,D,L,183,86180,United States
Dougie Hamilton,2007-06-06,55,D,R,188,90720,Canada
Vincent Trocheck,2008-07-07,29,C,R,185,86180,United States
Jordan Staal,2009-08-08,86,C,R,183,83720,Canada
Derek Ryan,2010-09-09,13,C,R,183,81640,Canada
Warren Foegele,2011-10-10,7,LW,L,191,90720,Canada
Andrei Svechnikov,2012-11-11,29,RW,R,188,95250,Russia
Teuvo Teravainen,2013-12-12,17,RW,R,183,81640,Finland
Jesper Fast,2014-01-01,11,RW,R,185,88450,Sweden
Jaccob Slavin,2015-02-02,4,D,R,188,90720,United States
Brett Pesce,2016-03-03,6,D,L,183,86180,United States
Dougie Hamilton,2017-04-04,55,D,R,188,90720,Canada
Steven Stamkos,1990-01-01,91,C,R,188,95250,Canada
Nikita Kucherov,1991-02-02,86,RW,R,183,83720,Russia
Brayden Point,1992-03-03,21,C,R,183,81640,Canada
Ondrej Palat,1993-04-04,18,LW,L,185,88450,Czech Republic
Tyler Johnson,1994-05-05,5,C,R,188,90720,Canada
Victor Hedman,1995-06-06,79,D,L,191,95250,Sweden
Mikhail Sergachev,1996-07-07,77,D,L,183,86180,Russia
Ryan McDonagh,1997-08-08,7,D,L,188,90720,United States
Alex Killorn,1998-09-09,17,LW,L,185,86180,Canada
Cedric Paquette,1999-10-10,13,C,R,183,81640,Canada
Yanni Gourde,2000-11-11,12,C,R,183,83720,Canada
Pat Maroon,2001-12-12,14,LW,L,191,90720,Canada
Dan Girardi,2002-01-01,5,D,R,188,88450,United States
Kevin Shattenkirk,2003-02-02,2,D,R,183,83720,United States
Erik Cernak,2004-03-03,6,D,R,188,95250,Slovakia
Braydon Coburn,2005-04-04,4,D,L,183,86180,Canada
Anton Stralman,2006-05-05,28,D,R,188,92520,Sweden
Andrei Vasilevskiy,2007-06-06,31,G,,188,86180,Russia
Curtis McElhinney,2008-07-07,30,G,,185,88450,Canada
Louis Domingue,2009-08-08,39,G,,183,81640,Canada
Luke Schenn,2010-09-09,2,D,R,183,83720,Canada
Zach Bogosian,2011-10-10,5,D,L,188,90720,United States
Jan Rutta,2012-11-11,6,D,R,183,81640,Czech Republic
Mitchell Stephens,2013-12-12,10,C,R,185,88450,Canada
Carter Verhaeghe,2014-01-01,19,RW,R,183,81640,Canada
Ross Colton,2015-02-02,8,LW,L,183,83720,United States
Mathieu Joseph,2016-03-03,7,LW,L,183,81640,Canada
Cal Foote,2017-04-04,53,D,R,188,90720,United States
Artemi Panarin,1990-01-01,72,LW,L,183,86180,Russia
Mika Zibanejad,1991-02-02,93,C,R,188,95250,Sweden
Chris Kreider,1992-03-03,20,LW,L,183,83720,United States
Pavel Buchnevich,1993-04-04,87,RW,R,183,81640,Russia
Kaapo Kakko,1994-05-05,13,RW,R,185,88450,Finland
Jacob Trouba,1995-06-06,5,D,R,188,90720,Canada
Adam Fox,1996-07-07,23,D,R,183,86180,United States
Ryan Lindgren,1997-08-08,55,D,L,188,90720,United States
Barclay Goodrow,1998-09-09,28,LW,L,185,86180,Canada
Filip Chytil,1999-10-10,71,C,L,183,83720,Czech Republic
Alexis Lafreniere,2000-11-11,20,LW,L,183,81640,Canada
Vitali Kravtsov,2001-12-12,42,RW,R,191,90720,Russia
K'Andre Miller,2002-01-01,5,D,L,185,88450,United States
Igor Shesterkin,2003-02-02,31,G,,183,83720,Russia
Alexandar Georgiev,2004-03-03,35,G,,188,95250,Bulgaria
Ryan Lindgren,2005-04-04,55,D,L,188,90720,United States
Barclay Goodrow,2006-05-05,28,LW,L,185,86180,Canada
Filip Chytil,2007-06-06,71,C,L,183,83720,Czech Republic
Alexis Lafreniere,2008-07-07,20,LW,L,183,81640,Canada
Vitali Kravtsov,2009-08-08,42,RW,R,191,90720,Russia
K'Andre Miller,2010-09-09,5,D,L,185,88450,United States
Igor Shesterkin,2011-10-10,31,G,,183,83720,Russia
Alexandar Georgiev,2012-11-11,35,G,,188,95250,Bulgaria
Ryan Lindgren,2013-12-12,55,D,L,188,90720,United States
Barclay Goodrow,2014-01-01,28,LW,L,185,86180,Canada
Filip Chytil,2015-02-02,71,C,L,183,83720,Czech Republic
Alexis Lafreniere,2016-03-03,20,LW,L,183,81640,Canada
Vitali Kravtsov,2017-04-04,42,RW,R,191,90720,Russia
Brady Tkachuk,1990-01-01,7,LW,L,183,86180,United States
Thomas Chabot,1991-02-02,8,D,L,188,95250,Canada
Josh Norris,1992-03-03,19,C,R,183,83720,Canada
Drake Batherson,1993-04-04,21,RW,R,183,81640,Canada
Tim Stützle,1994-05-05,18,C,R,185,88450,Germany
Artem Zub,1995-06-06,23,D,R,188,90720,Russia
Nikita Zaitsev,1996-07-07,4,D,L,183,86180,Russia
Erik Brannstrom,1997-08-08,55,D,L,188,90720,Sweden
Alex Formenton,1998-09-09,29,LW,L,185,86180,Canada
Connor Brown,1999-10-10,86,RW,R,183,83720,Canada
Nick Paul,2000-11-11,13,C,R,183,81640,Canada
Mathieu Joseph,2001-12-12,7,LW,L,191,90720,Canada
Jake Sanderson,2002-01-01,5,D,L,185,88450,United States
Mads Søgaard,2003-02-02,31,G,,183,83720,Denmark
Anton Forsberg,2004-03-03,35,G,,188,95250,Sweden
Erik Gudbranson,2005-04-04,4,D,R,183,86180,Canada
Thomas Chabot,2006-05-05,8,D,L,188,95250,Canada
Josh Norris,2007-06-06,19,C,R,183,83720,Canada
Drake Batherson,2008-07-07,21,RW,R,183,81640,Canada
Tim Stützle,2009-08-08,18,C,R,185,88450,Germany
Artem Zub,2010-09-09,23,D,R,188,90720,Russia
Nikita Zaitsev,2011-10-10,4,D,L,183,86180,Russia
Erik Brannstrom,2012-11-11,55,D,L,188,90720,Sweden
Alex Formenton,2013-12-12,29,LW,L,185,86180,Canada
Connor Brown,2014-01-01,86,RW,R,183,83720,Canada
Nick Paul,2015-02-02,13,C,R,183,81640,Canada
Mathieu Joseph,2016-03-03,7,LW,L,191,90720,Canada
Jake Sanderson,2017-04-04,5,D,L,185,88450,United States
Jamie Benn,1990-01-01,14,LW,L,183,86180,Canada
Tyler Seguin,1991-02-02,9,C,R,188,95250,Canada
Roope Hintz,1992-03-03,20,C,L,183,83720,Finland
Alexander Radulov,1993-04-04,47,RW,R,183,81640,Russia
Denis Gurianov,1994-05-05,8,RW,R,185,88450,Russia
Miro Heiskanen,1995-06-06,4,D,R,188,90720,Finland
Esa Lindell,1996-07-07,23,D,R,183,86180,Finland
John Klingberg,1997-08-08,3,D,R,188,90720,Sweden
Joel Kiviranta,1998-09-09,24,RW,R,185,86180,Finland
Radek Faksa,1999-10-10,12,C,R,183,83720,Czech Republic
Andrew Cogliano,2000-11-11,16,RW,R,183,81640,Canada
Joel Hanley,2001-12-12,7,D,R,191,90720,Canada
Jason Dickinson,2002-01-01,11,C,R,185,88450,Canada
Blake Comeau,2003-02-02,13,LW,L,183,83720,Canada
Esa Lindell,2004-03-03,23,D,R,183,86180,Finland
John Klingberg,2005-04-04,3,D,R,188,90720,Sweden
Joel Kiviranta,2006-05-05,24,RW,R,185,86180,Finland
Radek Faksa,2007-06-06,12,C,R,183,83720,Czech Republic
Andrew Cogliano,2008-07-07,16,RW,R,183,81640,Canada
Joel Hanley,2009-08-08,7,D,R,191,90720,Canada
Jason Dickinson,2010-09-09,11,C,R,185,88450,Canada
Blake Comeau,2011-10-10,13,LW,L,183,83720,Canada
Esa Lindell,2012-11-11,23,D,R,183,86180,Finland
John Klingberg,2013-12-12,3,D,R,188,90720,Sweden
Joel Kiviranta,2014-01-01,24,RW,R,185,86180,Finland
Radek Faksa,2015-02-02,12,C,R,183,83720,Czech Republic
Andrew Cogliano,2016-03-03,16,RW,R,183,81640,Canada
Joel Hanley,2017-04-04,7,D,R,191,90720,Canada
Kirill Kaprizov,1990-01-01,13,LW,L,183,86180,Russia
Ryan Hartman,1991-02-02,21,C,R,188,95250,United States
Kevin Fiala,1992-03-03,10,RW,R,183,83720,Switzerland
Mats Zuccarello,1993-04-04,11,RW,R,183,81640,Norway
Marcus Foligno,1994-05-05,8,LW,L,185,88450,Canada
Jonas Brodin,1995-06-06,24,D,L,188,90720,Sweden
Matt Dumba,1996-07-07,5,D,R,183,86180,Canada
Jared Spurgeon,1997-08-08,4,D,R,188,90720,Canada
Jordan Greenway,1998-09-09,17,LW,L,185,86180,United States
Victor Rask,1999-10-10,20,C,R,183,83720,Sweden
Ryan Donato,2000-11-11,18,LW,L,183,81640,United States
Nico Sturm,2001-12-12,12,C,R,191,90720,Germany
Dmitry Kulikov,2002-01-01,7,D,L,185,88450,Russia
Cam Talbot,2003-02-02,32,G,,183,83720,Canada
Kaapo Kahkonen,2004-03-03,35,G,,188,95250,Finland
Jordie Benn,2005-04-04,2,D,L,183,86180,Canada
Dmitry Kulikov,2006-05-05,7,D,L,185,88450,Russia
Cam Talbot,2007-06-06,32,G,,183,83720,Canada
Kaapo Kahkonen,2008-07-07,35,G,,188,95250,Finland
Jordie Benn,2009-08-08,2,D,L,183,86180,Canada
Dmitry Kulikov,2010-09-09,7,D,L,185,88450,Russia
Cam Talbot,2011-10-10,32,G,,183,83720,Canada
Kaapo Kahkonen,2012-11-11,35,G,,188,95250,Finland
Jordie Benn,2013-12-12,2,D,L,183,86180,Canada
Dmitry Kulikov,2014-01-01,7,D,L,185,88450,Russia
Cam Talbot,2015-02-02,32,G,,183,83720,Canada
Kaapo Kahkonen,2016-03-03,35,G,,188,95250,Finland
Jordie Benn,2017-04-04,2,D,L,183,86180,Canada
Alex Ovechkin,1990-01-01,8,LW,L,188,95250,Russia
Nicklas Backstrom,1991-02-02,19,C,R,183,83720,Sweden
Evgeny Kuznetsov,1992-03-03,92,C,R,183,81640,Russia
T.J. Oshie,1993-04-04,77,RW,R,185,88450,United States
Anthony Mantha,1994-05-05,13,LW,L,188,90720,Canada
John Carlson,1995-06-06,4,D,R,183,86180,United States
Dmitry Orlov,1996-07-07,23,D,L,188,90720,Russia
Justin Schultz,1997-08-08,42,D,R,185,86180,Canada
Nick Jensen,1998-09-09,43,D,R,185,86180,United States
Lars Eller,1999-10-10,20,C,R,183,83720,Denmark
Garnet Hathaway,2000-11-11,14,RW,R,183,81640,United States
Daniel Sprong,2001-12-12,26,RW,R,191,90720,Canada
Vitek Vanecek,2002-01-01,30,G,,185,88450,Czech Republic
Ilya Samsonov,2003-02-02,35,G,,183,83720,Russia
Rafferty Farrell,2004-03-03,5,D,R,188,95250,United States
Martin Fehervary,2005-04-04,7,D,L,183,86180,Slovakia
Alex Alexeyev,2006-05-05,6,D,L,188,92520,Russia
Connor McMichael,2007-06-06,10,C,R,188,86180,Canada
Hendrix Lapierre,2008-07-07,11,C,R,183,81640,Canada
Dylan Strome,2009-08-08,15,C,R,183,83720,Canada
Aliaksei Protas,2010-09-09,21,LW,L,183,81640,Belarus
Joe Snively,2011-10-10,27,LW,L,178,81640,United States
Axel Andersson,2012-11-11,52,D,L,183,83720,Sweden
Lucas Johansen,2013-12-12,53,D,R,185,88450,Canada
Tobias Geisser,2014-01-01,54,D,R,183,81640,Switzerland
Mason Alexeyev,2015-02-02,56,D,L,188,90720,Russia
Bogdan Trineyev,2016-03-03,57,D,R,183,86180,Russia
Alexander Alexeyev,2017-04-04,6,D,L,188,92520,Russia
Mark Scheifele,1990-01-01,5,C,R,183,86180,Canada
Blake Wheeler,1991-02-02,26,RW,R,188,95250,United States
Kyle Connor,1992-03-03,81,LW,L,183,83720,United States
Pierre-Luc Dubois,1993-04-04,13,C,R,185,88450,Canada
Nikolaj Ehlers,1994-05-05,17,LW,L,188,90720,Denmark
Josh Morrissey,1995-06-06,4,D,R,183,86180,Canada
Neal Pionk,1996-07-07,23,D,R,188,90720,United States
Dylan DeMelo,1997-08-08,22,D,R,185,86180,Canada
Andrew Copp,1998-09-09,10,C,R,185,86180,United States
Adam Lowry,1999-10-10,41,C,R,183,83720,Canada
David Gustafsson,2000-11-11,50,C,R,183,81640,Sweden
Mason Appleton,2001-12-12,12,RW,R,191,90720,Canada
Cole Perfetti,2002-01-01,10,C,R,185,88450,Canada
Eric Comrie,2003-02-02,31,G,,183,83720,Canada
Laurent Brossoit,2004-03-03,30,G,,188,95250,Canada
Nate Schmidt,2005-04-04,4,D,R,183,86180,United States
Logan Stanley,2006-05-05,5,D,L,188,92520,Canada
Ville Heinola,2007-06-06,7,D,L,188,86180,Finland
Dylan Samberg,2008-07-07,8,D,L,183,81640,United States
Declan Chisholm,2009-08-08,27,D,R,183,81640,Canada
Johnny Keane,2010-09-09,28,D,R,183,83720,Canada
Simon Nemec,2011-10-10,29,D,R,183,81640,Slovakia
Mikey Eyssimont,2012-11-11,32,RW,R,183,83720,United States
Kristian Reichel,2013-12-12,33,C,R,183,81640,Czech Republic
Cole Maier,2014-01-01,34,C,R,183,81640,Canada
Daniel Tordella,2015-02-02,36,C,R,183,81640,Canada
Henri Nikkanen,2016-03-03,37,D,L,183,81640,Finland
Ville Heinola,2017-04-04,7,D,L,188,86180,Finland
Vladimir Tarasenko,1990-01-01,91,RW,R,183,86180,Russia
Ryan O'Reilly,1991-02-02,90,C,R,188,95250,Canada
Jordan Kyrou,1992-03-03,8,RW,R,183,83720,Canada
Robert Thomas,1994-05-05,20,C,R,185,88450,Canada
Colton Parayko,1995-06-06,5,D,R,188,90720,Canada
Torey Krug,1996-07-07,7,D,L,183,86180,United States
Justin Faulk,1997-08-08,4,D,R,188,90720,United States
Niko Mikkola,1998-09-09,5,D,L,185,86180,Finland
Brayden Schenn,1999-10-10,17,C,R,183,83720,Canada
Oskar Sundqvist,2000-11-11,12,C,R,183,81640,Sweden
Logan Brown,2001-12-12,13,C,R,191,90720,Canada
Jake Allen,2002-01-01,31,G,,185,88450,Canada
Jordan Binnington,2003-02-02,34,G,,183,83720,Canada
Ville Husso,2004-03-03,39,G,,188,95250,Finland
Marco Scandella,2005-04-04,2,D,L,183,86180,Canada
Robert Bortuzzo,2006-05-05,4,D,R,188,92520,Canada
Calle Rosen,2007-06-06,6,D,L,188,86180,Sweden
Scott Perunovich,2008-07-07,27,D,L,183,81640,United States
Alexei Toropchenko,2009-08-08,24,RW,R,183,83720,Russia
Zachary Bolduc,2010-09-09,26,C,R,183,81640,Canada
Matthew Kessel,2011-10-10,25,D,R,183,81640,United States
Tyler Tucker,2012-11-11,23,D,R,183,81640,United States
Dylan McLaughlin,2013-12-12,22,C,R,183,81640,United States
Nikita Alexandrov,2014-01-01,21,LW,L,183,81640,Russia
Jake Neighbours,2015-02-02,19,LW,L,183,81640,Canada
Zachary Bolduc,2016-03-03,26,C,R,183,81640,Canada
Matthew Kessel,2017-04-04,25,D,R,183,81640,United States
Roman Josi,1990-01-01,4,D,R,183,86180,Switzerland
Filip Forsberg,1991-02-02,9,LW,L,188,95250,Sweden
Matt Duchene,1992-03-03,8,C,R,183,83720,Canada
Mikael Granlund,1993-04-04,28,C,R,183,81640,Finland
Ryan Johansen,1994-05-05,19,C,R,185,88450,Canada
Dante Fabbro,1995-06-06,23,D,R,188,90720,Canada
Jeremy Lauzon,1996-07-07,27,D,L,183,86180,Canada
Colton Sissons,1997-08-08,12,C,R,188,90720,Canada
Eeli Tolvanen,1998-09-09,22,RW,R,185,86180,Finland
Yakov Trenin,1999-10-10,24,RW,R,183,83720,Russia
Philip Tomasino,2000-11-11,17,C,R,183,81640,Canada
Alexandre Carrier,2001-12-12,5,D,R,191,90720,Canada
Juuse Saros,2002-01-01,1,G,,185,88450,Finland
David Rittich,2003-02-02,30,G,,183,83720,Czech Republic
Kevin Lankinen,2004-03-03,35,G,,188,95250,Finland
Jeremy Davies,2005-04-04,2,D,R,183,86180,Canada
Luke Prokop,2006-05-05,3,D,L,188,92520,Canada
Alexander Carrier,2007-06-06,5,D,R,191,90720,Canada
Juuse Saros,2008-07-07,1,G,,185,88450,Finland
David Rittich,2009-08-08,30,G,,183,83720,Czech Republic
Kevin Lankinen,2010-09-09,35,G,,188,95250,Finland
Jeremy Davies,2011-10-10,2,D,R,183,86180,Canada
Luke Prokop,2012-11-11,3,D,L,188,92520,Canada
Alexander Carrier,2013-12-12,5,D,R,191,90720,Canada
Juuse Saros,2014-01-01,1,G,,185,88450,Finland
David Rittich,2015-02-02,30,G,,183,83720,Czech Republic
Kevin Lankinen,2016-03-03,35,G,,188,95250,Finland
Jeremy Davies,2017-04-04,2,D,R,183,86180,Canada
Jacob Trouba,1993-04-04,8,D,R,183,81640,Canada
Adam Fox,1994-05-05,5,D,R,185,88450,United States
K'Andre Miller,1995-06-06,23,D,L,188,90720,United States
Barclay Goodrow,1996-07-07,13,LW,L,183,86180,Canada
Alexis Lafrenière,1997-08-08,20,LW,L,188,90720,Canada
Filip Chytil,1998-09-09,71,C,L,185,86180,Czech Republic
Ryan Lindgren,1999-10-10,24,D,L,183,83720,United States
Sammy Blais,2000-11-11,14,RW,R,183,81640,Canada
Vitali Kravtsov,2001-12-12,41,RW,R,191,90720,Russia
Igor Shesterkin,2002-01-01,31,G,,185,88450,Russia
Jaroslav Halak,2003-02-02,35,G,,183,83720,Slovakia
Erik Gustafsson,2004-03-03,52,D,L,188,95250,Sweden
K'Andre Miller,2005-04-04,23,D,L,188,90720,United States
Barclay Goodrow,2006-05-05,13,LW,L,183,86180,Canada
Alexis Lafrenière,2007-06-06,20,LW,L,188,90720,Canada
Filip Chytil,2008-07-07,71,C,L,185,86180,Czech Republic
Ryan Lindgren,2009-08-08,24,D,L,183,83720,United States
Sammy Blais,2010-09-09,14,RW,R,183,81640,Canada
Vitali Kravtsov,2011-10-10,41,RW,R,191,90720,Russia
Igor Shesterkin,2012-11-11,31,G,,185,88450,Russia
Jaroslav Halak,2013-12-12,35,G,,183,83720,Slovakia
Erik Gustafsson,2014-01-01,52,D,L,188,95250,Sweden
K'Andre Miller,2015-02-02,23,D,L,188,90720,United States
Barclay Goodrow,2016-03-03,13,LW,L,183,86180,Canada
Alexis Lafrenière,2017-04-04,20,LW,L,188,90720,Canada
Mathew Barzal,1990-01-01,13,C,R,183,86180,Canada
Anders Lee,1991-02-02,13,LW,L,188,95250,United States
Brock Nelson,1992-03-03,13,C,R,183,83720,Canada
Josh Bailey,1993-04-04,13,RW,R,183,81640,Canada
Kyle Palmieri,1994-05-05,13,RW,R,185,88450,United States
Scott Mayfield,1995-06-06,13,D,R,188,90720,United States
Adam Pelech,1996-07-07,13,D,R,183,86180,Canada
Ryan Pulock,1997-08-08,13,D,R,188,90720,Canada
Noah Dobson,1998-09-09,13,D,R,185,86180,Canada
Mathew Barzal,1999-10-10,13,C,R,183,83720,Canada
Anders Lee,2000-11-11,13,LW,L,188,95250,United States
Brock Nelson,2001-12-12,13,C,R,183,83720,Canada
Josh Bailey,2002-01-01,13,RW,R,183,81640,Canada
Kyle Palmieri,2003-02-02,13,RW,R,185,88450,United States
Scott Mayfield,2004-03-03,13,D,R,188,90720,United States
Adam Pelech,2005-04-04,13,D,R,183,86180,Canada
Ryan Pulock,2006-05-05,13,D,R,188,90720,Canada
Noah Dobson,2007-06-06,13,D,R,185,86180,Canada
Mathew Barzal,2008-07-07,13,C,R,183,83720,Canada
Anders Lee,2009-08-08,13,LW,L,188,95250,United States
Brock Nelson,2010-09-09,13,C,R,183,83720,Canada
Josh Bailey,2011-10-10,13,RW,R,183,81640,Canada
Kyle Palmieri,2012-11-11,13,RW,R,185,88450,United States
Scott Mayfield,2013-12-12,13,D,R,188,90720,United States
Adam Pelech,2014-01-01,13,D,R,183,86180,Canada
Ryan Pulock,2015-02-02,13,D,R,188,90720,Canada
Noah Dobson,2016-03-03,13,D,R,185,86180,Canada
Mathew Barzal,2017-04-04,13,C,R,183,83720,Canada
Jack Hughes,1990-01-01,86,C,R,183,86180,United States
Nico Hischier,1991-02-02,13,C,R,188,95250,Switzerland
Jesper Boqvist,1992-03-03,71,C,R,183,83720,Sweden
Yegor Sharangovich,1993-04-04,20,RW,R,185,88450,Belarus
Dawson Mercer,1994-05-05,18,C,R,188,90720,Canada
Jonas Siegenthaler,1995-06-06,56,D,L,183,86180,Switzerland
Damon Severson,1996-07-07,4,D,R,188,90720,Canada
Dougie Hamilton,1997-08-08,7,D,R,185,86180,Canada
Kevin Bahl,1998-09-09,4,D,L,185,86180,United States
Michael McLeod,1999-10-10,12,C,R,183,83720,Canada
Fabian Zetterlund,2000-11-11,21,LW,L,183,81640,Sweden
Alexander Holtz,2001-12-12,22,RW,R,191,90720,Sweden
Akira Schmid,2002-01-01,35,G,,185,88450,Switzerland
Mackenzie Blackwood,2003-02-02,31,G,,183,83720,Canada
Vitek Vanecek,2004-03-03,30,G,,188,95250,Czech Republic
Colton White,2005-04-04,2,D,R,183,86180,Canada
Nikita Okhotiuk,2006-05-05,3,D,L,188,92520,Russia
Simon Nemec,2007-06-06,7,D,R,188,86180,Slovakia
Nolan Foote,2008-07-07,8,LW,L,183,81640,Canada
Graeme Clarke,2009-08-08,23,RW,R,183,83720,Canada
Tyce Thompson,2010-09-09,25,RW,R,183,81640,United States
Nolan Foote,2011-10-10,8,LW,L,183,81640,Canada
Graeme Clarke,2012-11-11,23,RW,R,183,83720,Canada
Tyce Thompson,2013-12-12,25,RW,R,183,81640,United States
Nolan Foote,2014-01-01,8,LW,L,183,81640,Canada
Graeme Clarke,2015-02-02,23,RW,R,183,83720,Canada
Tyce Thompson,2016-03-03,25,RW,R,183,81640,United States
Nolan Foote,2017-04-04,8,LW,L,183,81640,Canada
Claude Giroux,1990-01-01,28,C,R,183,86180,Canada
Kevin Hayes,1991-02-02,14,C,R,188,95250,United States
Sean Couturier,1992-03-03,13,C,R,183,83720,Canada
James van Riemsdyk,1993-04-04,13,LW,L,185,88450,United States
Travis Konecny,1994-05-05,13,RW,R,188,90720,Canada
Ivan Provorov,1995-06-06,6,D,R,183,86180,Russia
Rasmus Ristolainen,1996-07-07,23,D,R,188,90720,Finland
Justin Braun,1997-08-08,22,D,R,185,86180,United States
Travis Sanheim,1998-09-09,17,D,L,185,86180,Canada
Scott Laughton,1999-10-10,10,C,R,183,83720,Canada
Nicolas Aubé-Kubel,2000-11-11,12,LW,L,183,81640,Canada
Joel Farabee,2001-12-12,11,LW,L,191,90720,United States
Carter Hart,2002-01-01,79,G,,185,88450,Canada
Martin Jones,2003-02-02,30,G,,183,83720,Canada
Felix Sandstrom,2004-03-03,31,G,,188,95250,Sweden
Ronnie Attard,2005-04-04,2,D,R,183,86180,United States
Cam York,2006-05-05,5,D,L,188,92520,United States
Emil Andrae,2007-06-06,7,D,L,188,86180,Sweden
Elliot Desnoyers,2008-07-07,8,C,R,183,81640,Canada
Tyson Foerster,2009-08-08,28,RW,R,183,83720,Canada
Hayden Forsyth,2010-09-09,27,D,R,183,81640,Canada
Ronnie Attard,2011-10-10,2,D,R,183,86180,United States
Cam York,2012-11-11,5,D,L,188,92520,United States
Emil Andrae,2013-12-12,7,D,L,188,86180,Sweden
Elliot Desnoyers,2014-01-01,8,C,R,183,81640,Canada
Tyson Foerster,2015-02-02,28,RW,R,183,83720,Canada
Hayden Forsyth,2016-03-03,27,D,R,183,81640,Canada
Ronnie Attard,2017-04-04,2,D,R,183,86180,United States
Sidney Crosby,1990-01-01,87,C,R,183,86180,Canada
Evgeni Malkin,1991-02-02,71,C,R,188,95250,Russia
Jake Guentzel,1992-03-03,59,LW,L,183,83720,United States
Kris Letang,1993-04-04,58,D,R,183,81640,Canada
Bryan Rust,1994-05-05,17,RW,R,185,88450,Canada
Marcus Pettersson,1995-06-06,4,D,L,188,90720,Sweden
Brian Dumoulin,1996-07-07,23,D,L,183,86180,Canada
Jason Zucker,1997-08-08,13,LW,L,188,90720,United States
Kasperi Kapanen,1998-09-09,41,RW,R,185,86180,Finland
Jeff Carter,1999-10-10,72,C,R,183,83720,Canada
Teddy Blueger,2000-11-11,56,C,R,183,81640,Canada
Danton Heinen,2001-12-12,21,LW,L,191,90720,Canada
Tristan Jarry,2002-01-01,31,G,,185,88450,Canada
Casey DeSmith,2003-02-02,35,G,,183,83720,United States
Louis Domingue,2004-03-03,39,G,,188,95250,Canada
Mark Friedman,2005-04-04,2,D,R,183,86180,United States
Pierre-Olivier Joseph,2006-05-05,3,D,L,188,92520,Canada
Juuso Riikola,2007-06-06,7,D,L,188,86180,Finland
Pyotr Khokhryakov,2008-07-07,8,RW,R,183,81640,Russia
Filip Hållander,2009-08-08,29,RW,R,183,83720,Sweden
Mark Friedman,2010-09-09,2,D,R,183,86180,United States
Pierre-Olivier Joseph,2011-10-10,3,D,L,188,92520,Canada
Juuso Riikola,2012-11-11,7,D,L,188,86180,Finland
Pyotr Khokhryakov,2013-12-12,8,RW,R,183,81640,Russia
Filip Hållander,2014-01-01,29,RW,R,183,83720,Sweden
Mark Friedman,2015-02-02,2,D,R,183,86180,United States
Pierre-Olivier Joseph,2016-03-03,3,D,L,188,92520,Canada
Juuso Riikola,2017-04-04,7,D,L,188,86180,Finland
Andrei Svechnikov,1991-02-02,29,LW,L,188,95250,Russia
Martin Necas,1992-03-03,88,C,R,183,83720,Czech Republic
Teuvo Teravainen,1993-04-04,25,RW,R,185,88450,Finland
Jesper Fast,1994-05-05,14,RW,R,188,90720,Sweden
Jaccob Slavin,1995-06-06,74,D,R,183,86180,United States
Brett Pesce,1996-07-07,4,D,R,188,90720,United States
Brady Skjei,1997-08-08,22,D,L,185,86180,United States
Ethan Bear,1998-09-09,4,D,R,185,86180,Canada
Jordan Staal,1999-10-10,11,C,R,183,83720,Canada
Derek Stepan,2000-11-11,26,C,R,183,81640,United States
Jesper Fast,2001-12-12,14,RW,R,191,90720,Sweden
Frederik Andersen,2002-01-01,31,G,,185,88450,Denmark
Antti Raanta,2003-02-02,35,G,,183,83720,Finland
Pyotr Kochetkov,2004-03-03,36,G,,188,95250,Russia
Dylan Coghlan,2005-04-04,2,D,R,183,86180,Canada
Jake Gardiner,2006-05-05,3,D,L,188,92520,United States
Calvin De Haan,2007-06-06,7,D,L,188,86180,Canada
Mackenzie Weegar,2008-07-07,8,D,R,183,81640,Canada
Stefan Noesen,2009-08-08,22,RW,R,183,83720,United States
Dylan Coghlan,2010-09-09,2,D,R,183,86180,Canada
Jake Gardiner,2011-10-10,3,D,L,188,92520,United States
Calvin De Haan,2012-11-11,7,D,L,188,86180,Canada
Mackenzie Weegar,2013-12-12,8,D,R,183,81640,Canada
Stefan Noesen,2014-01-01,22,RW,R,183,83720,United States
Dylan Coghlan,2015-02-02,2,D,R,183,86180,Canada
Jake Gardiner,2016-03-03,3,D,L,188,92520,United States
Calvin De Haan,2017-04-04,7,D,L,188,86180,Canada
Dylan Larkin,1990-01-01,16,C,R,183,86180,United States
Lucas Raymond,1991-02-02,19,LW,L,188,95250,Sweden
Moritz Seider,1992-03-03,5,D,R,183,83720,Germany
Tyler Bertuzzi,1993-04-04,56,LW,L,185,88450,Canada
Pius Suter,1994-05-05,13,C,R,188,90720,Switzerland
Filip Hronek,1995-06-06,4,D,R,183,86180,Czech Republic
Ben Chiarot,1996-07-07,23,D,L,188,90720,Canada
Robby Fabbri,1997-08-08,22,RW,R,185,86180,Canada
Michael Rasmussen,1998-09-09,17,C,R,185,86180,Canada
Jonatan Berggren,1999-10-10,20,LW,L,183,83720,Sweden
Elmer Söderblom,2000-11-11,21,LW,L,183,81640,Sweden
Simon Edvinsson,2001-12-12,2,D,L,191,90720,Sweden
Ville Husso,2002-01-01,31,G,,185,88450,Finland
Alex Nedeljkovic,2003-02-02,35,G,,183,83720,United States
Magnus Hellberg,2004-03-03,39,G,,188,95250,Sweden
Donovan Sebrango,2005-04-04,2,D,R,183,86180,Canada
Albert Johansson,2006-05-05,3,D,L,188,92520,Sweden
Egor Zamula,2007-06-06,7,D,L,188,86180,Russia
Jared McIsaac,2008-07-07,8,D,R,183,81640,Canada
Kirill Tyutyayev,2009-08-08,23,RW,R,183,81640,Russia
Donovan Sebrango,2010-09-09,2,D,R,183,86180,Canada
Albert Johansson,2011-10-10,3,D,L,188,92520,Sweden
Egor Zamula,2012-11-11,7,D,L,188,86180,Russia
Jared McIsaac,2013-12-12,8,D,R,183,81640,Canada
Kirill Tyutyayev,2014-01-01,23,RW,R,183,81640,Russia
Donovan Sebrango,2015-02-02,2,D,R,183,86180,Canada
Albert Johansson,2016-03-03,3,D,L,188,92520,Sweden
Egor Zamula,2017-04-04,7,D,L,188,86180,Russia
